8/22/1972
10/15/1975
7/28/1980
2/26/1977
null
3/1/1970
9/24/1963
3/2/1991
5/26/1965
7/10/1998
1/11/1980
1/11/1973
12/14/1972
3/7/1994
null
5/21/1966
5/5/1992
10/26/1956
7/12/1988
8/18/1965
7/30/1987
6/21/1969
9/15/1992
9/22/1980
11/14/1994
4/12/1991
10/9/1993